<?xml version="1.0" encoding="UTF-8" standalone="no"?>
<svg
   xmlns:dc="http://purl.org/dc/elements/1.1/"
   xmlns:cc="http://creativecommons.org/ns#"
   xmlns:rdf="http://www.w3.org/1999/02/22-rdf-syntax-ns#"
   xmlns:svg="http://www.w3.org/2000/svg"
   xmlns="http://www.w3.org/2000/svg"
   xmlns:sodipodi="http://sodipodi.sourceforge.net/DTD/sodipodi-0.dtd"
   xmlns:inkscape="http://www.inkscape.org/namespaces/inkscape"
   version="1.1"
   id="Layer_1"
   x="0px"
   y="0px"
   width="92px"
   height="92px"
   viewBox="0 0 92 92"
   enable-background="new 0 0 92 92"
   xml:space="preserve"
   sodipodi:docname="bi.svg"
   inkscape:version="0.92.3 (2405546, 2018-03-11)"><metadata
   id="metadata11"><rdf:RDF><cc:Work
       rdf:about=""><dc:format>image/svg+xml</dc:format><dc:type
         rdf:resource="http://purl.org/dc/dcmitype/StillImage" /><dc:title></dc:title></cc:Work></rdf:RDF></metadata><defs
   id="defs9" /><sodipodi:namedview
   pagecolor="#ffffff"
   bordercolor="#666666"
   borderopacity="1"
   objecttolerance="10"
   gridtolerance="10"
   guidetolerance="10"
   inkscape:pageopacity="0"
   inkscape:pageshadow="2"
   inkscape:window-width="2816"
   inkscape:window-height="1339"
   id="namedview7"
   showgrid="false"
   inkscape:measure-start="34.87,24.6019"
   inkscape:measure-end="35.0767,26.5315"
   showguides="true"
   inkscape:guide-bbox="true"
   inkscape:zoom="15.460069"
   inkscape:cx="52.448614"
   inkscape:cy="37.753082"
   inkscape:window-x="0"
   inkscape:window-y="0"
   inkscape:window-maximized="0"
   inkscape:current-layer="Layer_1"><sodipodi:guide
     position="-4.7567125,25.56733"
     orientation="1,0"
     id="guide1092"
     inkscape:locked="false" /></sodipodi:namedview>
<path
   fill="#3998D5"
   d="M73.03,61.78c-1.53,0-2.84-1.16-2.98-2.72c-0.16-1.65,1.05-3.11,2.7-3.27C79.51,55.15,85,48.93,85,41.91  c0-7.48-6-13.56-13.39-13.56c-0.65,0-1.31,0.05-1.97,0.15l-2.5,0.37l-0.8-2.39c-1.84-5.52-6.93-9.23-12.68-9.23  c-1.23,0-2.46,0.17-3.65,0.52l-2.2,0.63l-1.19-1.95C44.17,12.41,39.91,10,35.24,10c-7.38,0-13.39,6.08-13.39,13.56  c0,0.64,0.05,1.29,0.14,1.95l0.45,3.19l-3.22,0.22C12.37,29.4,7,35.22,7,42.19c0,7.02,5.5,13.11,12.26,13.58  c1.65,0.12,2.9,1.55,2.78,3.2s-1.54,2.9-3.2,2.78C8.83,61.06,1,52.47,1,42.19c0-9.08,6.32-16.84,14.85-18.81  C15.95,12.68,24.61,4,35.24,4c6.05,0,11.61,2.77,15.27,7.51c1.05-0.17,2.1-0.26,3.16-0.26c7.54,0,14.29,4.38,17.48,11.11  c0.15,0,0.31-0.01,0.46-0.01C82.3,22.35,91,31.12,91,41.91c0,10.2-7.77,18.92-17.68,19.86C73.22,61.78,73.13,61.78,73.03,61.78z"
   id="path2" />

<rect
   style="fill:#3998d5;fill-opacity:1;stroke:none;stroke-width:0.94468766;stroke-opacity:0.63286713"
   id="rect1094"
   width="2.1673341"
   height="33.561325"
   x="25.897707"
   y="32.002106" /><rect
   style="fill:#3998d5;fill-opacity:1;stroke:none;stroke-width:3.1919868;stroke-opacity:0.63286713"
   id="rect1104"
   width="5.4676437"
   height="14.907742"
   x="31.396242"
   y="50.590744" /><rect
   style="fill:#3998d5;fill-opacity:1;stroke:none;stroke-width:4.51317883;stroke-opacity:0.63286713"
   id="rect1104-5"
   width="5.4676437"
   height="29.802647"
   x="58.734459"
   y="35.695835" /><rect
   style="fill:#3998d5;fill-opacity:1;stroke:none;stroke-width:3.83737397;stroke-opacity:0.63286713"
   id="rect1104-5-3"
   width="5.4676437"
   height="21.545595"
   x="49.748425"
   y="43.953003"
   transform="matrix(1,0,-0.00193449,0.99999813,0,0)" /><rect
   style="fill:#3998d5;fill-opacity:1;stroke:none;stroke-width:2.72174287;stroke-opacity:0.63286713"
   id="rect1104-56"
   width="5.4676437"
   height="10.838866"
   x="40.50898"
   y="54.659622" /><rect
   style="fill:#3998d5;fill-opacity:1;stroke:none;stroke-width:0.92241907;stroke-opacity:0.63286713"
   id="rect1094-2"
   width="41.562752"
   height="1.6685559"
   x="25.897707"
   y="63.894875"
   rx="0"
   ry="0" /></svg>