<svg xmlns="http://www.w3.org/2000/svg" width="48" height="48" viewBox="0 0 48 48">
  <g fill="#3998D5" fill-rule="evenodd" transform="translate(2.239 .575)">
    <path d="M39.6088527 26.2404489L29.5873357 22.2181903 29.5873357 17.6213234 41.040498 17.6213234 41.040498 26.2404489 39.6088527 26.2404489zM29.5873357 9.0021978L41.040498 9.0021978 41.040498 15.7059621 29.5873357 15.7059621 29.5873357 9.0021978zM20.9020211 19.8239888L16.2253131 21.6435819 16.2253131 17.6213234 27.6784754 17.6213234 27.6784754 21.4520458 23.4789826 19.8239888C22.2382233 19.1536123 20.9020211 19.8239888 20.9020211 19.8239888zM16.2253131 9.0021978L27.6784754 9.0021978 27.6784754 15.7059621 16.2253131 15.7059621 16.2253131 9.0021978zM16.2253131.383072247L27.6784754.383072247 27.6784754 7.08683657 16.2253131 7.08683657 16.2253131.383072247zM2.95873357 26.2404489L2.95873357 17.6213234 14.4118958 17.6213234 14.4118958 22.4097264 4.48582187 26.2404489 2.95873357 26.2404489zM2.95873357 9.0021978L14.4118958 9.0021978 14.4118958 15.7059621 2.95873357 15.7059621 2.95873357 9.0021978zM40.4678399 35.721487C40.4678399 35.721487 38.2726504 38.6902969 37.1273342 40.8929624 37.1273342 40.8929624 37.1273342 40.8929624 37.1273342 40.8929624 37.1273342 43.6702361 30.828095 45.9686696 22.8108814 46.1602058L22.8108814 21.73935C23.0017675 21.73935 23.0972105 21.8351181 23.2880965 21.9308861L43.7129025 30.0711714C43.8083455 30.0711714 43.0448014 32.9442132 40.4678399 35.721487zM20.9974641 46.2559738C13.0756935 46.0644377 6.6810113 43.7660042 6.6810113 40.9887304 6.6810113 40.9887304 5.63113809 38.6902969 4.77215093 37.6368483 3.91316376 36.5833996.190886037 31.7949965 0 29.9754033L20.9974641 21.9308861 20.9974641 46.2559738z"/>
  </g>
</svg>
