<svg xmlns="http://www.w3.org/2000/svg" width="92" height="92" viewBox="0 0 92 92">
  <g fill="#3998D5" fill-rule="evenodd" transform="translate(3 7)">
    <polygon points="21.917 33.25 41.081 33.25 41.081 52.415 21.917 52.415"/>
    <polygon points="35.378 58.169 54.539 58.169 54.539 77.331 35.378 77.331"/>
    <polygon points="48.777 33.249 67.946 33.249 67.946 52.418 48.777 52.418"/>
    <rect width="19.167" height="19.167" x="66" y="4.5"/>
    <polygon points="35.435 4.602 54.435 4.602 54.435 23.602 35.435 23.602" transform="rotate(-45 44.935 14.102)"/>
    <polygon points="4.768 4.602 23.768 4.602 23.768 23.602 4.768 23.602" transform="rotate(-45 14.268 14.102)"/>
  </g>
</svg>
