<svg xmlns="http://www.w3.org/2000/svg" width="48" height="48" viewBox="0 0 48 48">
  <path fill="#3998D5" fill-rule="evenodd" d="M47.6487658,26.1272489 C46.406938,27.3097031 37.3719146,35.6678452 35.6227485,37.1751495 C35.1454303,37.5859599 34.6561041,37.7089031 34.2338225,37.2051357 C33.6634423,36.5254494 32.8328886,35.6548512 32.3855904,35.118099 C31.9132755,34.5493615 31.8952635,34.0326 32.3875917,33.6017989 C34.1517678,32.0565121 40.4799867,26.3801322 40.7311541,26.1152544 C40.8812542,25.9583269 41.0203469,25.7394279 41.0153436,25.5035368 C41.0203469,25.2666461 40.8812542,25.0477472 40.7321548,24.8908196 C40.4809873,24.6269414 34.1587725,18.9425652 32.3965977,17.3962789 C31.9042695,16.9644782 31.9232822,16.4467172 32.3965977,15.8789792 C32.8448966,15.3432265 33.6754503,14.4736279 34.2468312,13.7939416 C34.6701134,13.2911737 35.158439,13.4141169 35.6357572,13.8259268 C37.3829219,15.3352302 46.4089393,23.7043672 47.6497665,24.887821 C47.8519013,25.080732 47.9859907,25.2986314 48,25.507535 C47.9859907,25.7164385 47.8519013,25.934338 47.6487658,26.1272489 Z M22.9573049,42.1978312 C22.8462308,42.7405807 22.3178786,43.0904192 21.7765177,42.9794704 L18.8375584,42.3757491 C18.2961975,42.2648003 17.9479653,41.7350448 18.0580387,41.1922953 L25.0737158,6.80216881 C25.1847899,6.25941933 25.7131421,5.9095808 26.254503,6.02052959 L29.1934623,6.62425093 C29.7348232,6.73519972 30.0830554,7.2649552 29.972982,7.80770468 L22.9573049,42.1978312 Z M15.673449,33.5748113 C16.1677785,34.0056125 16.1497665,34.522374 15.6754503,35.0901119 C15.2261508,35.6258646 14.3925951,36.4954632 13.8202135,37.17415 C13.3959306,37.6769179 12.9046031,37.5549742 12.4262842,37.1441638 C10.6701134,35.6388586 1.60006671,27.2917114 0.352234823,26.1102568 C0.1490994,25.9183453 0.0140093396,25.7004459 0,25.4915423 C0.0140093396,25.2826388 0.1490994,25.0657389 0.351234156,24.8728279 C1.59806538,23.6903737 10.6591061,15.3322316 12.4132755,13.8249273 C12.8915944,13.4141169 13.3819213,13.2911737 13.8072048,13.7939416 C14.3805871,14.4726283 15.2141428,15.3412274 15.664443,15.8759806 C16.1397598,16.442719 16.1577718,16.9594805 15.664443,17.3902816 C13.8952635,18.9355684 7.54903269,24.6119483 7.29586391,24.8768261 C7.14676451,25.0327541 7.00767178,25.2516531 7.01167445,25.4875442 C7.00767178,25.7234353 7.14676451,25.9423343 7.29686458,26.0992618 C7.55003336,26.36314 13.9022682,32.0325232 15.673449,33.5748113 Z"/>
</svg>
