<?xml version="1.0" encoding="UTF-8" standalone="no"?>
<svg
   xmlns:dc="http://purl.org/dc/elements/1.1/"
   xmlns:cc="http://creativecommons.org/ns#"
   xmlns:rdf="http://www.w3.org/1999/02/22-rdf-syntax-ns#"
   xmlns:svg="http://www.w3.org/2000/svg"
   xmlns="http://www.w3.org/2000/svg"
   xmlns:sodipodi="http://sodipodi.sourceforge.net/DTD/sodipodi-0.dtd"
   xmlns:inkscape="http://www.inkscape.org/namespaces/inkscape"
   version="1.1"
   id="Layer_1"
   x="0px"
   y="0px"
   width="92px"
   height="92px"
   viewBox="0 0 92 92"
   enable-background="new 0 0 92 92"
   xml:space="preserve"
   sodipodi:docname="analytics.svg.2018_10_09_18_47_58.0.svg"
   inkscape:version="0.92.3 (2405546, 2018-03-11)"><metadata
   id="metadata11"><rdf:RDF><cc:Work
       rdf:about=""><dc:format>image/svg+xml</dc:format><dc:type
         rdf:resource="http://purl.org/dc/dcmitype/StillImage" /></cc:Work></rdf:RDF></metadata><defs
   id="defs9" /><sodipodi:namedview
   pagecolor="#ffffff"
   bordercolor="#666666"
   borderopacity="1"
   objecttolerance="10"
   gridtolerance="10"
   guidetolerance="10"
   inkscape:pageopacity="0"
   inkscape:pageshadow="2"
   inkscape:window-width="3091"
   inkscape:window-height="1557"
   id="namedview7"
   showgrid="false"
   inkscape:zoom="7.2555304"
   inkscape:cx="14.698773"
   inkscape:cy="82.810005"
   inkscape:window-x="0"
   inkscape:window-y="0"
   inkscape:window-maximized="0"
   inkscape:current-layer="Layer_1" />
<path
   fill="#3998D5"
   d="M73.03,61.78c-1.53,0-2.84-1.16-2.98-2.72c-0.16-1.65,1.05-3.11,2.7-3.27C79.51,55.15,85,48.93,85,41.91  c0-7.48-6-13.56-13.39-13.56c-0.65,0-1.31,0.05-1.97,0.15l-2.5,0.37l-0.8-2.39c-1.84-5.52-6.93-9.23-12.68-9.23  c-1.23,0-2.46,0.17-3.65,0.52l-2.2,0.63l-1.19-1.95C44.17,12.41,39.91,10,35.24,10c-7.38,0-13.39,6.08-13.39,13.56  c0,0.64,0.05,1.29,0.14,1.95l0.45,3.19l-3.22,0.22C12.37,29.4,7,35.22,7,42.19c0,7.02,5.5,13.11,12.26,13.58  c1.65,0.12,2.9,1.55,2.78,3.2s-1.54,2.9-3.2,2.78C8.83,61.06,1,52.47,1,42.19c0-9.08,6.32-16.84,14.85-18.81  C15.95,12.68,24.61,4,35.24,4c6.05,0,11.61,2.77,15.27,7.51c1.05-0.17,2.1-0.26,3.16-0.26c7.54,0,14.29,4.38,17.48,11.11  c0.15,0,0.31-0.01,0.46-0.01C82.3,22.35,91,31.12,91,41.91c0,10.2-7.77,18.92-17.68,19.86C73.22,61.78,73.13,61.78,73.03,61.78z"
   id="path2" />
<path
   d="M 66.5,69.99 H 26.49 C 25.67,69.99 25,69.32 25,68.48 V 42.52 c 0,-0.83 0.67,-1.51 1.49,-1.51 H 66.5 c 0.82,0 1.49,0.67 1.49,1.51 v 25.97 c 0.01,0.83 -0.66,1.5 -1.49,1.5 z M 66,43 H 27 V 67 H 66 Z M 31.75,77 H 42 v -3 c 0,-0.55 0.45,-1 1,-1 h 7 c 0.55,0 1,0.45 1,1 v 3 h 10.25 c 0.41,0 0.75,0.34 0.75,0.75 v 2.5 C 62,80.66 61.66,81 61.25,81 H 50 43 31.75 C 31.34,81 31,80.66 31,80.25 v -2.5 C 31,77.34 31.34,77 31.75,77 Z"
   id="path4"
   inkscape:connector-curvature="0"
   style="fill:#3998d5"
   sodipodi:nodetypes="ssssssscscccccscsssscssssccssss" />
<circle
   style="fill:#3998d5;fill-opacity:1;stroke:none;stroke-opacity:0.63286713"
   id="path834"
   cx="32.045334"
   cy="60.630428"
   r="2.0771263" /><circle
   style="fill:#3998d5;fill-opacity:1;stroke:none;stroke-opacity:0.63286713"
   id="path834-3"
   cx="41.567791"
   cy="51.110126"
   r="2.0771263" /><circle
   style="fill:#3998d5;fill-opacity:1;stroke:none;stroke-opacity:0.63286713"
   id="path834-6"
   cx="52.132973"
   cy="58.355602"
   r="2.0771263" /><circle
   style="fill:#3998d5;fill-opacity:1;stroke:none;stroke-opacity:0.63286713"
   id="path834-7"
   cx="60.560249"
   cy="49.248505"
   r="2.0771263" /><circle
   style="fill:#3998d5;fill-opacity:1;stroke:none;stroke-width:0.7536729;stroke-opacity:0.63286713"
   id="path834-3-5"
   cx="48.504932"
   cy="55.498444"
   r="1.5654737" /><circle
   style="fill:#3998d5;fill-opacity:1;stroke:none;stroke-width:0.7536729;stroke-opacity:0.63286713"
   id="path834-3-5-3"
   cx="45.313198"
   cy="53.376499"
   r="1.5654737" /><circle
   style="fill:#3998d5;fill-opacity:1;stroke:none;stroke-width:0.7536729;stroke-opacity:0.63286713"
   id="path834-3-5-3-5"
   cx="38.232948"
   cy="54.27697"
   r="1.5654737" /><circle
   style="fill:#3998d5;fill-opacity:1;stroke:none;stroke-width:0.7536729;stroke-opacity:0.63286713"
   id="path834-3-5-3-6"
   cx="35.195969"
   cy="57.283379"
   r="1.5654737" /><circle
   style="fill:#3998d5;fill-opacity:1;stroke:none;stroke-width:0.7536729;stroke-opacity:0.63286713"
   id="path834-3-5-2"
   cx="57.799091"
   cy="52.430264"
   r="1.5654737" /><circle
   style="fill:#3998d5;fill-opacity:1;stroke:none;stroke-width:0.7536729;stroke-opacity:0.63286713"
   id="path834-3-5-3-9"
   cx="55.183735"
   cy="55.17141"
   r="1.5654737" /></svg>