<svg xmlns="http://www.w3.org/2000/svg" width="48" height="48" viewBox="0 0 48 48">
  <path fill="#3998D5" fill-rule="evenodd" d="M46,48 L36,48 C34.895,48 34,47.105 34,46 L34,34 C34,32.895 34.895,32 36,32 L41,32 L41,24 L25,24 L25,32 L29,32 C30.105,32 31,32.895 31,34 L31,46 C31,47.105 30.105,48 29,48 L19,48 C17.895,48 17,47.105 17,46 L17,34 C17,32.895 17.895,32 19,32 L23,32 L23,24 L8,24 L8,32 L12,32 C13.105,32 14,32.895 14,34 L14,46 C14,47.105 13.105,48 12,48 L2,48 C0.895,48 0,47.105 0,46 L0,34 C0,32.895 0.895,32 2,32 L6,32 L6,24 L6,23 L6,22 L23,22 L23,16 L19,16 C17.895,16 17,15.105 17,14 L17,2 C17,0.895 17.895,0 19,0 L29,0 C30.105,0 31,0.895 31,2 L31,14 C31,15.105 30.105,16 29,16 L25,16 L25,22 L43,22 L43,23 L43,24 L43,32 L46,32 C47.105,32 48,32.895 48,34 L48,46 C48,47.105 47.105,48 46,48 Z"/>
</svg>
