<?xml version="1.0" encoding="UTF-8" standalone="no"?>
<!-- Created with Inkscape (http://www.inkscape.org/) -->

<svg
   xmlns:dc="http://purl.org/dc/elements/1.1/"
   xmlns:cc="http://creativecommons.org/ns#"
   xmlns:rdf="http://www.w3.org/1999/02/22-rdf-syntax-ns#"
   xmlns:svg="http://www.w3.org/2000/svg"
   xmlns="http://www.w3.org/2000/svg"
   xmlns:sodipodi="http://sodipodi.sourceforge.net/DTD/sodipodi-0.dtd"
   xmlns:inkscape="http://www.inkscape.org/namespaces/inkscape"
   version="1.1"
   id="svg1532"
   width="257.96185"
   height="220.04799"
   viewBox="0 0 257.96185 220.04799"
   sodipodi:docname="social.svg"
   inkscape:version="0.92.2 (5c3e80d, 2017-08-06)">
  <metadata
     id="metadata1538">
    <rdf:RDF>
      <cc:Work
         rdf:about="">
        <dc:format>image/svg+xml</dc:format>
        <dc:type
           rdf:resource="http://purl.org/dc/dcmitype/StillImage" />
        <dc:title></dc:title>
      </cc:Work>
    </rdf:RDF>
  </metadata>
  <defs
     id="defs1536" />
  <sodipodi:namedview
     pagecolor="#ffffff"
     objecttolerance="10"
     gridtolerance="10"
     guidetolerance="10"
     inkscape:pageopacity="0"
     inkscape:pageshadow="2"
     inkscape:window-width="1920"
     inkscape:window-height="1016"
     id="namedview1534"
     showgrid="false"
     inkscape:zoom="1.1125147"
     inkscape:cx="-116.91303"
     inkscape:cy="125.05882"
     inkscape:window-x="0"
     inkscape:window-y="27"
     inkscape:window-maximized="1"
     inkscape:current-layer="svg1532"
     fit-margin-top="10"
     fit-margin-left="10"
     fit-margin-right="10"
     fit-margin-bottom="10"
     inkscape:pagecheckerboard="false"
     bordercolor="#000000"
     borderopacity="0" />
  <g
     id="g813"
     transform="translate(-21.077698,-40.012498)">
    <path
       inkscape:connector-curvature="0"
       id="path2151"
       d="m 198.55921,234.49999 h 6.47833 l -0.26878,-22.75 -0.26877,-22.75 -9.80626,-0.28689 -9.80626,-0.28689 0.11643,10.28689 c 0.15,13.25301 0.24508,12.39504 -1.57534,14.21546 -1.32846,1.32846 -4.80736,1.57143 -22.5,1.57143 h -20.92857 v 10 10 h 17.11752 17.11753 l 8.13247,7.25 c 4.47287,3.9875 8.35748,7.7 8.63248,8.25 0.275,0.55 0.6307,-2.7125 0.79044,-7.25 l 0.29044,-8.25 z m -44.36592,-25.99768 c 21.28235,-0.002 21.72278,-0.0444 23.25,-2.22483 1.31034,-1.87078 1.5567,-6.2667 1.5567,-27.77749 0,-21.51079 -0.24636,-25.90671 -1.5567,-27.77749 l -1.55671,-2.22251 h -37.74329 c -28.02257,0 -38.05236,0.30906 -38.943295,1.2 -0.8757,0.87571 -1.2,8.70329 -1.2,28.96482 0,31.49332 -0.46875,29.83518 8.434255,29.83518 h 4.56574 v 10.0819 10.0819 l 10.75,-10.07959 10.75,-10.07958 21.6933,-0.002 z m -37.1933,-1.50232 v -5.5 h -6.5 -6.5 v -23 -23 h 34 34 v 23 23 h -20.6391 -20.6391 l -6.26458,5.5 c -3.44552,3.025 -6.53293,5.5 -6.8609,5.5 -0.32798,0 -0.59632,-2.475 -0.59632,-5.5 z m -30.072576,-8.13486 c 2.56124,-3.25608 2.64057,-6.44214 0.23439,-9.41364 -1.39805,-1.72653 -3.37559,-2.45515 -8.25913,-3.04307 -8.27291,-0.99596 -14.22684,-3.61839 -20.16848,-8.88326 -13.92046,-12.33488 -16.62805,-31.60694 -6.6296,-47.18818 6.39624,-9.96767 14.4428,-14.32673 30.19116,-16.35546 4.11633,-0.53027 4.71107,-0.88465 4.19795,-2.50135 -0.3288,-1.03595 -0.6217,-5.5255 -0.65089,-9.97677 -0.0747,-11.391448 2.76086,-18.699903 10.128741,-26.106028 8.231325,-8.274059 13.227045,-10.300038 25.528435,-10.352878 8.97403,-0.03855 10.52401,0.233425 15.10744,2.650883 7.06928,3.728572 11.13187,7.358262 14.99478,13.39696 l 3.3021,5.162023 6.29784,-1.472662 c 11.18195,-2.614744 22.68951,-0.27206 31.46072,6.4047 4.53798,3.454378 10.60732,12.635352 12.26357,18.550892 l 1.23185,4.39975 6.53885,-0.87609 c 21.87545,-2.93089 41.24889,14.1055 41.29203,36.3109 0.0338,17.40221 -14.63367,34.67748 -31.09836,36.62748 -8.05954,0.95453 -11.59601,7.79221 -6.71651,12.98621 3.60933,3.84195 13.62243,2.48261 25.32569,-3.43812 6.5713,-3.32445 18.48248,-15.39915 21.45293,-21.74743 10.20219,-21.80353 7.49957,-43.17617 -7.50973,-59.38801 -9.01621,-9.73858 -19.99291,-15.282614 -33.02512,-16.680094 -5.72516,-0.61393 -6.19395,-0.86569 -7.99193,-4.292036 -3.05354,-5.819046 -12.36823,-15.009577 -18.93337,-18.681011 -7.53573,-4.214222 -17.74261,-6.649791 -26.65614,-6.360696 l -6.82099,0.221228 -5.99615,-5.719359 c -3.85172,-3.673925 -8.77198,-7.034587 -13.75782,-9.396945 -7.64701,-3.623252 -7.94635,-3.677773 -20.26168,-3.690326 -10.57487,-0.01078 -13.38467,0.331287 -18.2442,2.221055 -14.852796,5.77593 -24.804356,16.089095 -30.681006,31.795855 -1.14113,3.049956 -2.08093,6.990994 -2.08844,8.757862 -0.0247,5.803483 -0.99478,7.562857 -4.8418,8.781107 -11.28339,3.57312 -24.35787,14.46185 -29.40037,24.48531 -11.8367,23.5289 -4.57368,52.74456 16.60742,66.80377 8.45445,5.61175 16.71888,8.34022 25.82582,8.52629 5.01279,0.10242 5.92005,-0.19245 7.75,-2.51886 z"
       style="fill:#3998d5;fill-opacity:1"
       sodipodi:nodetypes="ccccccsssccccccssccccsccscsscccccccscccccccccccsssccsssscssssccscsccsscsssscsscsssscccsssc" />
  </g>
</svg>
