<?xml version="1.0" encoding="utf-8"?>
<!-- Generator: Adobe Illustrator 19.1.0, SVG Export Plug-In . SVG Version: 6.00 Build 0)  -->
<svg version="1.1" id="Icons" xmlns="http://www.w3.org/2000/svg" xmlns:xlink="http://www.w3.org/1999/xlink" x="0px" y="0px"
	 viewBox="-122 292 210 210" style="enable-background:new -122 292 210 210;" xml:space="preserve">
<style type="text/css">
	.st0{fill:none;}
	.st1{fill:#CBCECE;}
	.st2{fill:#F80000;}
	.st3{fill:#D90000;}
	.st4{fill:#FFFFFF;}
	.st5{fill:#DEE0E0;}
</style>
<title>OCIC_Portal_Logo_detailed</title>
<rect x="-122" y="292" class="st0" width="210" height="210"/>
<rect x="55.2" y="341.2" class="st1" width="6.6" height="19.7"/>
<rect x="68.3" y="367.5" class="st1" width="19.7" height="6.6"/>
<rect x="68.3" y="420" class="st1" width="19.7" height="6.6"/>
<rect x="55.2" y="433.1" class="st1" width="6.6" height="19.7"/>
<rect x="-95.8" y="433.1" class="st1" width="6.6" height="19.7"/>
<rect x="-122" y="420" class="st1" width="19.7" height="6.6"/>
<rect x="-122" y="367.5" class="st1" width="19.7" height="6.6"/>
<rect x="-95.8" y="341.2" class="st1" width="6.6" height="19.7"/>
<rect x="-95.8" y="367.5" class="st2" width="157.5" height="59.1"/>
<polygon class="st3" points="-95.8,367.5 12.5,367.5 -46.5,426.5 -95.8,426.5 "/>
<path class="st4" d="M41.2,391.3v-0.5h0.1c0.1,0,0.2,0,0.4,0c0.1,0,0.1,0.1,0.1,0.2c0,0.1,0,0.1,0,0.2c-0.1,0.1-0.2,0.1-0.3,0.1
	L41.2,391.3z M40.9,390.5v1.8h0.4v-0.7h0.2l0.4,0.7h0.4l-0.4-0.8h0.1c0.1-0.1,0.2-0.2,0.2-0.3c0.1-0.3-0.1-0.6-0.3-0.7
	c-0.2,0-0.3,0-0.5,0L40.9,390.5z M41.5,393.1c0.9,0,1.6-0.7,1.6-1.6c0-0.9-0.7-1.6-1.6-1.6c-0.9,0-1.6,0.7-1.6,1.6c0,0,0,0,0,0
	C39.9,392.3,40.6,393,41.5,393.1 M40.2,391.4c-0.1-0.7,0.5-1.3,1.2-1.4c0.7-0.1,1.3,0.5,1.4,1.2c0,0.1,0,0.2,0,0.2
	c0,0.7-0.6,1.3-1.3,1.3C40.8,392.7,40.2,392.1,40.2,391.4 M28.9,401.7c-2.1,0-3.9-1.4-4.5-3.4h11.8l1.6-2.5H24.5
	c0.6-2,2.4-3.4,4.5-3.4h8.1l1.6-2.5h-10c-4-0.2-7.3,2.9-7.5,6.9c-0.2,4,2.9,7.3,6.9,7.5c0.2,0,0.4,0,0.6,0h8.5l1.6-2.5H28.9z
	 M-5,404.3c-4,0.2-7.3-2.9-7.5-6.9c-0.2-4,2.9-7.3,6.9-7.5c0.2,0,0.4,0,0.6,0H5l-1.6,2.5h-8.1c-2.6,0-4.7,2.1-4.7,4.7
	s2.1,4.7,4.7,4.7h10l-1.6,2.5L-5,404.3z M-57.6,401.7c2.6,0,4.7-2.1,4.7-4.7c0-2.6-2.1-4.7-4.7-4.7h-8c-2.6,0-4.7,2.1-4.7,4.7
	c0,2.6,2.1,4.7,4.7,4.7l0,0H-57.6z M-65.7,404.3c-4,0.2-7.3-2.9-7.5-6.9c-0.2-4,2.9-7.3,6.9-7.5c0.2,0,0.4,0,0.6,0h8.4
	c4,0.2,7.1,3.5,6.9,7.5c-0.1,3.8-3.2,6.8-6.9,6.9H-65.7z M-36.6,399.6c2.7,0,4.9-2.2,4.9-4.9s-2.2-4.9-4.9-4.9h-12.1v14.4h2.8v-11.9
	h9.3c1.3,0,2.3,1,2.3,2.3s-1,2.3-2.3,2.3h-7.8l8.3,7.2h3.9l-5.5-4.7L-36.6,399.6z M9.2,401.7v-11.9H6.5v13c0,0.4,0.1,0.7,0.4,1
	c0.3,0.3,0.6,0.4,1,0.4h12.6l1.6-2.5L9.2,401.7z M-24.7,399.2h7.4l-3.9-6.3l-7.2,11.4h-3.3l8.8-13.7c0.7-0.9,2-1.1,2.9-0.5
	c0.2,0.1,0.3,0.3,0.5,0.5l8.8,13.7H-14l-1.5-2.5H-23L-24.7,399.2z"/>
<path class="st5" d="M-45.9,392.4h9.2c1.3,0,2.3,1,2.3,2.3s-1,2.3-2.3,2.3h-7.8l8.3,7.2h3.9l-5.5-4.7h1.3c2.7,0,4.9-2.2,4.9-4.9
	s-2.2-4.9-4.9-4.9h-12.2v14.4h2.8L-45.9,392.4z"/>
<path class="st5" d="M-65.7,404.3h8.4c4-0.2,7.1-3.5,6.9-7.5c-0.1-3.8-3.2-6.8-6.9-6.9h-8.4c-4-0.2-7.3,2.9-7.5,6.9
	c-0.2,4,2.9,7.3,6.9,7.5C-66.1,404.3-65.9,404.3-65.7,404.3z M-65.5,392.4h8c2.6,0,4.7,2.1,4.7,4.7s-2.1,4.7-4.7,4.7h-8
	c-2.6,0-4.7-2.1-4.7-4.7S-68.1,392.4-65.5,392.4L-65.5,392.4z"/>
<path class="st5" d="M-19.5,390.6c-0.7-0.9-2-1.1-2.9-0.5c-0.2,0.1-0.3,0.3-0.5,0.5l-8.8,13.7h3.3l7.2-11.4l3.2,5.1l2-2L-19.5,390.6
	z"/>
<polygon class="st5" points="-24.6,399.2 -23,401.7 -21.7,401.7 -19.2,399.2 "/>
</svg>
