<?xml version="1.0" encoding="UTF-8" standalone="no"?>
<!-- Created with Inkscape (http://www.inkscape.org/) -->

<svg
   xmlns:dc="http://purl.org/dc/elements/1.1/"
   xmlns:cc="http://creativecommons.org/ns#"
   xmlns:rdf="http://www.w3.org/1999/02/22-rdf-syntax-ns#"
   xmlns:svg="http://www.w3.org/2000/svg"
   xmlns="http://www.w3.org/2000/svg"
   xmlns:sodipodi="http://sodipodi.sourceforge.net/DTD/sodipodi-0.dtd"
   xmlns:inkscape="http://www.inkscape.org/namespaces/inkscape"
   width="43.334721mm"
   height="14.560687mm"
   viewBox="0 0 43.334721 14.560687"
   version="1.1"
   id="svg1210"
   inkscape:version="0.92.2 (5c3e80d, 2017-08-06)"
   sodipodi:docname="oracle_platinum_partner_specialized.svg">
  <defs
     id="defs1204" />
  <sodipodi:namedview
     id="base"
     pagecolor="#ffffff"
     bordercolor="#666666"
     borderopacity="1.0"
     inkscape:pageopacity="0.0"
     inkscape:pageshadow="2"
     inkscape:zoom="2.8"
     inkscape:cx="68.099048"
     inkscape:cy="-1.804922"
     inkscape:document-units="mm"
     inkscape:current-layer="layer1"
     showgrid="false"
     fit-margin-top="2"
     fit-margin-left="2"
     fit-margin-bottom="2"
     fit-margin-right="2"
     inkscape:window-width="1920"
     inkscape:window-height="1016"
     inkscape:window-x="0"
     inkscape:window-y="27"
     inkscape:window-maximized="1" />
  <metadata
     id="metadata1207">
    <rdf:RDF>
      <cc:Work
         rdf:about="">
        <dc:format>image/svg+xml</dc:format>
        <dc:type
           rdf:resource="http://purl.org/dc/dcmitype/StillImage" />
        <dc:title></dc:title>
      </cc:Work>
    </rdf:RDF>
  </metadata>
  <g
     inkscape:label="Layer 1"
     inkscape:groupmode="layer"
     id="layer1"
     transform="translate(60.220931,-92.416263)">
    <path
       id="path6766"
       style="fill:#ee2722;fill-opacity:1;fill-rule:nonzero;stroke:none;stroke-width:0.03527778"
       d="m -58.220931,100.02462 h 24.561729 v -5.608357 h -24.561729 z"
       inkscape:connector-curvature="0" />
    <path
       id="path6768"
       style="fill:#ffffff;fill-opacity:1;fill-rule:nonzero;stroke:none;stroke-width:0.03527778"
       d="m -47.428048,97.632891 h 1.440392 l -0.759884,-1.222446 -1.395236,2.211599 -0.635,0.0011 1.696509,-2.657792 c 0.07479,-0.105834 0.197202,-0.174061 0.333727,-0.174061 0.131939,0 0.254,0.06463 0.325614,0.170886 l 1.70427,2.660976 -0.638175,-0.0011 -0.296334,-0.494982 h -1.457325 z m 6.596944,0.495547 v -2.308225 h -0.538691 v 2.535449 c 0,0.06879 0.02646,0.135466 0.07867,0.185208 0.05362,0.05267 0.123472,0.08117 0.197556,0.08117 h 2.454627 l 0.319616,-0.493606 z m -8.912578,-0.412327 c 0.524934,0 0.947209,-0.426226 0.947209,-0.947949 0,-0.521723 -0.422275,-0.947949 -0.947209,-0.947949 h -2.357261 v 2.801831 h 0.538339 v -2.30572 h 1.782234 c 0.249413,0 0.452966,0.201471 0.452966,0.451838 0,0.251213 -0.203553,0.451873 -0.452966,0.451873 h -1.518356 l 1.607961,1.402009 h 0.784225 l -1.082322,-0.905933 z m -5.673372,0.905933 c -0.773289,0 -1.401233,-0.627274 -1.401233,-1.402009 0,-0.772513 0.627944,-1.399822 1.401233,-1.399822 h 1.628775 c 0.7747,0 1.39947,0.627309 1.39947,1.399822 0,0.775406 -0.62477,1.403103 -1.39947,1.403103 z m 1.590323,-0.493606 c 0.501297,0 0.909461,-0.4064 0.909461,-0.908403 0,-0.498016 -0.408164,-0.903711 -0.909461,-0.903711 h -1.553634 c -0.500592,0 -0.907344,0.405695 -0.907344,0.903711 0,0.502003 0.406752,0.908403 0.907344,0.908403 z m 10.231966,0.493606 c -0.774347,0 -1.399822,-0.627274 -1.399822,-1.402009 0,-0.772513 0.625475,-1.399822 1.399822,-1.399822 h 1.934633 l -0.3175,0.496111 h -1.580797 c -0.500944,0 -0.906639,0.405695 -0.906639,0.903711 0,0.502003 0.405695,0.908403 0.906639,0.908403 h 1.944159 l -0.318206,0.493606 z m 6.589889,-0.493606 c -0.414867,0 -0.763411,-0.278236 -0.871714,-0.65966 h 2.303639 l 0.315736,-0.493218 h -2.621492 c 0.108656,-0.381282 0.457553,-0.659236 0.873831,-0.659236 h 1.582914 l 0.316089,-0.496111 h -1.93675 c -0.772936,0 -1.398411,0.627309 -1.398411,1.399822 0,0.774735 0.625475,1.402009 1.398411,1.402009 h 1.662994 l 0.315736,-0.493606 h -1.940983"
       inkscape:connector-curvature="0" />
    <path
       id="path6770"
       style="fill:#ffffff;fill-opacity:1;fill-rule:nonzero;stroke:none;stroke-width:0.03527778"
       d="m -34.818359,96.118028 c 0,-0.133668 0.110419,-0.246557 0.249061,-0.246557 0.136172,0 0.24765,0.112889 0.24765,0.246557 0,0.139982 -0.111478,0.250119 -0.24765,0.250119 -0.138642,0 -0.249061,-0.110137 -0.249061,-0.250119 m 0.249061,0.316371 c 0.172155,0 0.31503,-0.140688 0.31503,-0.313902 0,-0.174307 -0.142875,-0.31503 -0.31503,-0.31503 -0.176389,0 -0.315384,0.140723 -0.315384,0.31503 0,0.173214 0.138995,0.313902 0.315384,0.313902 m -0.02999,-0.501192 c 0.05009,0 0.06914,0 0.09066,0.0095 0.0635,0.02148 0.07091,0.07786 0.07091,0.09839 0,0.0043 -0.0025,0.01693 -0.0046,0.02854 -0.0028,0.01418 -0.0127,0.04244 -0.04304,0.06174 -0.0039,0.0022 -0.0067,0.0038 -0.01623,0.0081 l 0.0822,0.145662 h -0.07973 l -0.0702,-0.135466 h -0.05186 v 0.135466 h -0.06597 v -0.351968 z m 0.02434,0.160126 c 0.02152,0 0.0448,-0.0025 0.05821,-0.02367 0.006,-0.0082 0.0081,-0.01654 0.0081,-0.03062 0,-0.01845 -0.01023,-0.03528 -0.02575,-0.04092 -0.01482,-0.0078 -0.0314,-0.0078 -0.06491,-0.0078 h -0.02187 v 0.103047 h 0.04621"
       inkscape:connector-curvature="0" />
    <path
       id="path6772"
       style="fill:none;stroke:#231f20;stroke-width:0.34184164;stroke-linecap:butt;stroke-linejoin:miter;stroke-miterlimit:4;stroke-dasharray:none;stroke-opacity:1"
       d="m -58.220931,100.81452 h 39.33472"
       inkscape:connector-curvature="0" />
    <path
       id="path6774"
       style="fill:#231f20;fill-opacity:1;fill-rule:nonzero;stroke:none;stroke-width:0.03527778"
       d="m -32.861501,94.455421 h 0.744361 c 0.346781,0 0.637117,0.02286 0.837142,0.26349 0.127,0.15307 0.147461,0.32699 0.147461,0.45018 0,0.280423 -0.116769,0.517454 -0.307269,0.640926 -0.176742,0.11356 -0.420865,0.11356 -0.547512,0.11356 h -0.349955 v 0.93733 h -0.524228 z m 0.510822,1.084369 h 0.206728 c 0.166864,0 0.476955,0 0.476955,-0.366819 0,-0.327448 -0.27693,-0.327448 -0.423686,-0.327448 h -0.259997 v 0.694267"
       inkscape:connector-curvature="0" />
    <path
       id="path6776"
       style="fill:#231f20;fill-opacity:1;fill-rule:nonzero;stroke:none;stroke-width:0.03527778"
       d="m -30.823152,96.860907 h 0.49389 v -2.412531 h -0.49389 z"
       inkscape:connector-curvature="0" />
    <path
       id="path6778"
       style="fill:#231f20;fill-opacity:1;fill-rule:nonzero;stroke:none;stroke-width:0.03527778"
       d="m -28.884286,96.860907 c -0.01659,-0.103328 -0.01659,-0.180234 -0.01659,-0.229976 -0.186973,0.269946 -0.410633,0.269946 -0.504473,0.269946 -0.243065,0 -0.353483,-0.06985 -0.419806,-0.133385 -0.100188,-0.100189 -0.146754,-0.23675 -0.146754,-0.369994 0,-0.13342 0.04657,-0.380753 0.356658,-0.524369 0.206727,-0.09299 0.503767,-0.09299 0.667102,-0.09299 0,-0.110525 -0.0032,-0.163442 -0.02294,-0.223802 -0.04339,-0.123331 -0.173919,-0.1403 -0.220134,-0.1403 -0.07055,0 -0.143933,0.02992 -0.187325,0.09345 -0.03634,0.05676 -0.03634,0.110102 -0.03634,0.150319 h -0.483658 c 0.0032,-0.09038 0.01341,-0.270228 0.190148,-0.397263 0.153104,-0.110102 0.349954,-0.136843 0.510116,-0.136843 0.140404,0 0.434269,0.02357 0.600779,0.216888 0.113596,0.136843 0.116771,0.337361 0.116771,0.413844 l 0.0032,0.677298 c 0,0.14358 0.0099,0.287584 0.03986,0.427178 z m -0.607483,-0.520629 c 0,0.113559 0.07691,0.240629 0.240596,0.240629 0.08996,0 0.163336,-0.04381 0.209902,-0.09673 0.08678,-0.106821 0.09313,-0.237031 0.09313,-0.4173 -0.316442,-0.02685 -0.543632,0.07334 -0.543632,0.273402"
       inkscape:connector-curvature="0" />
    <path
       id="path6780"
       style="fill:#231f20;fill-opacity:1;fill-rule:nonzero;stroke:none;stroke-width:0.03527778"
       d="m -27.049487,96.837624 c -0.160161,0.04343 -0.303742,0.05334 -0.383824,0.05334 -0.497062,0 -0.497062,-0.313937 -0.497062,-0.453672 v -0.924243 h -0.32385 v -0.32699 h 0.32385 v -0.330588 l 0.490009,-0.179987 v 0.510575 h 0.400753 v 0.32699 h -0.400753 v 0.760977 c 0.0039,0.153353 0.0039,0.250084 0.224012,0.250084 0.07338,0 0.106891,-0.0031 0.166865,-0.0099 v 0.323427"
       inkscape:connector-curvature="0" />
    <path
       id="path6782"
       style="fill:#231f20;fill-opacity:1;fill-rule:nonzero;stroke:none;stroke-width:0.03527778"
       d="m -26.759504,94.451823 h 0.52705 v 0.430354 h -0.52705 z m 0.01659,0.720725 h 0.493887 v 1.688359 h -0.493896 v -1.688359"
       inkscape:connector-curvature="0" />
    <path
       id="path6784"
       style="fill:#231f20;fill-opacity:1;fill-rule:nonzero;stroke:none;stroke-width:0.03527778"
       d="m -25.808769,95.476254 c 0,-0.0066 0,-0.190006 -0.0095,-0.306881 h 0.473782 l 0.01304,0.253683 c 0.04693,-0.07687 0.180279,-0.293935 0.54752,-0.293935 0.329846,0 0.470604,0.200378 0.513996,0.317253 0.03634,0.103329 0.04657,0.190147 0.04657,0.503661 v 0.910872 h -0.503791 v -1.047715 c 0,-0.06985 0,-0.130069 -0.02681,-0.183409 -0.03704,-0.07345 -0.113949,-0.14358 -0.240242,-0.14358 -0.107244,0 -0.203552,0.05013 -0.256823,0.13021 -0.02998,0.04339 -0.05997,0.126929 -0.05997,0.25714 v 0.987354 h -0.497772 v -1.384653"
       inkscape:connector-curvature="0" />
    <path
       id="path6786"
       style="fill:#231f20;fill-opacity:1;fill-rule:nonzero;stroke:none;stroke-width:0.03527778"
       d="m -23.293111,95.176111 v 1.004041 c 0,0.146791 0,0.370417 0.263525,0.370417 0.317149,0 0.317149,-0.237138 0.317149,-0.523487 v -0.850971 h 0.507293 v 1.110862 c 0.0063,0.363784 0.01024,0.407211 0.01024,0.450462 0.0032,0.0466 0.0063,0.07662 0.01341,0.123472 h -0.480834 l -0.01622,-0.223661 c -0.05045,0.07345 -0.177094,0.267088 -0.497769,0.267088 -0.226837,0 -0.413456,-0.103364 -0.507296,-0.226836 -0.110066,-0.13656 -0.110066,-0.369993 -0.110066,-0.45406 v -1.047327 h 0.500591"
       inkscape:connector-curvature="0" />
    <path
       id="path6788"
       style="fill:#231f20;fill-opacity:1;fill-rule:nonzero;stroke:none;stroke-width:0.03527778"
       d="m -21.728187,95.492941 c 0,-0.106927 -0.0071,-0.210291 -0.01659,-0.317218 h 0.476957 l 0.01659,0.217029 c 0.05362,-0.07345 0.183795,-0.253683 0.5207,-0.253683 0.38735,0 0.497062,0.236997 0.530577,0.3175 0.1397,-0.27051 0.367242,-0.313936 0.540456,-0.313936 0.340429,0 0.477309,0.203552 0.513644,0.270509 0.09067,0.146756 0.08396,0.350027 0.08396,0.496782 v 0.950983 h -0.497769 v -0.990953 c 0,-0.180234 -0.02646,-0.380188 -0.283282,-0.380188 -0.296685,0 -0.303742,0.27686 -0.303742,0.526979 v 0.844162 h -0.497416 v -1.001148 c 0,-0.129787 -0.0032,-0.369993 -0.276577,-0.369993 -0.310092,0 -0.310092,0.266665 -0.310092,0.380188 v 0.990953 h -0.497416 v -1.367966"
       inkscape:connector-curvature="0" />
    <path
       id="path6790"
       style="fill:#231f20;fill-opacity:1;fill-rule:nonzero;stroke:none;stroke-width:0.03527778"
       d="m -32.861501,97.597613 h 0.744361 c 0.346781,0 0.637117,0.02328 0.837142,0.26349 0.127,0.153493 0.147461,0.326989 0.147461,0.450462 0,0.280458 -0.116769,0.517207 -0.307269,0.640679 -0.176742,0.113524 -0.420865,0.113524 -0.547512,0.113524 h -0.349955 v 0.937752 h -0.524228 z m 0.510822,1.084368 h 0.206728 c 0.166864,0 0.476955,0 0.476955,-0.366818 0,-0.327025 -0.27693,-0.327025 -0.423686,-0.327025 h -0.259997 v 0.693843"
       inkscape:connector-curvature="0" />
    <path
       id="path6792"
       style="fill:#231f20;fill-opacity:1;fill-rule:nonzero;stroke:none;stroke-width:0.03527778"
       d="m -29.945439,100.00313 c -0.01659,-0.10336 -0.01659,-0.179842 -0.01659,-0.230007 -0.186618,0.270227 -0.410633,0.270227 -0.504118,0.270227 -0.243417,0 -0.353484,-0.07013 -0.420159,-0.133385 -0.09984,-0.100471 -0.147108,-0.237031 -0.147108,-0.370416 0,-0.133244 0.04727,-0.380189 0.357362,-0.524193 0.207082,-0.09274 0.503767,-0.09274 0.667105,-0.09274 0,-0.110807 -0.0032,-0.163724 -0.02328,-0.224084 -0.04339,-0.123472 -0.173214,-0.140018 -0.220133,-0.140018 -0.06985,0 -0.143229,0.03006 -0.186621,0.09317 -0.03704,0.05676 -0.03704,0.110385 -0.03704,0.150637 h -0.48401 c 0.0039,-0.0907 0.01341,-0.27051 0.1905,-0.397158 0.15381,-0.110525 0.350308,-0.137265 0.510469,-0.137265 0.140406,0 0.433916,0.02399 0.600429,0.217311 0.113946,0.136419 0.116769,0.33722 0.116769,0.41342 l 0.0035,0.677298 c 0,0.144004 0.01024,0.28762 0.04022,0.427213 z m -0.607484,-0.520343 c 0,0.113665 0.0769,0.240312 0.240242,0.240312 0.09066,0 0.164042,-0.04382 0.210608,-0.09673 0.08678,-0.106786 0.09313,-0.236749 0.09313,-0.417266 -0.316797,-0.02646 -0.543984,0.07331 -0.543984,0.273685"
       inkscape:connector-curvature="0" />
    <path
       id="path6794"
       style="fill:#231f20;fill-opacity:1;fill-rule:nonzero;stroke:none;stroke-width:0.03527778"
       d="m -29.101244,98.732146 c 0,-0.08004 -0.01376,-0.323814 -0.02363,-0.420828 h 0.464256 l 0.0099,0.323814 c 0.06347,-0.143298 0.173187,-0.346851 0.573941,-0.326707 v 0.443442 c -0.500592,-0.04657 -0.530577,0.210573 -0.530577,0.420864 v 0.830789 h -0.49389 v -1.271374"
       inkscape:connector-curvature="0" />
    <path
       id="path6796"
       style="fill:#231f20;fill-opacity:1;fill-rule:nonzero;stroke:none;stroke-width:0.03527778"
       d="m -26.879448,99.979815 c -0.160163,0.04342 -0.303741,0.05334 -0.383823,0.05334 -0.497065,0 -0.497065,-0.313246 -0.497065,-0.453652 v -0.924242 h -0.32385 V 98.32811 h 0.32385 v -0.329777 l 0.490715,-0.180657 v 0.510434 h 0.400402 v 0.327166 h -0.400402 v 0.760801 c 0.0035,0.153529 0.0035,0.25026 0.22366,0.25026 0.07338,0 0.10654,-0.0036 0.166513,-0.01 v 0.323427"
       inkscape:connector-curvature="0" />
    <path
       id="path6798"
       style="fill:#231f20;fill-opacity:1;fill-rule:nonzero;stroke:none;stroke-width:0.03527778"
       d="m -26.565829,98.618481 c 0,-0.0066 0,-0.190182 -0.0099,-0.306916 h 0.473427 l 0.01341,0.253717 c 0.04657,-0.07691 0.179917,-0.293934 0.547159,-0.293934 0.330551,0 0.470251,0.200343 0.513995,0.317218 0.03704,0.103364 0.04692,0.190429 0.04692,0.503661 v 0.910903 h -0.504085 v -1.047323 c 0,-0.07027 0,-0.130633 -0.02681,-0.183832 -0.03634,-0.07345 -0.113242,-0.143157 -0.23989,-0.143157 -0.106892,0 -0.203904,0.04974 -0.25682,0.129787 -0.02999,0.04343 -0.05997,0.126929 -0.05997,0.257139 v 0.987386 h -0.49742 v -1.384649"
       inkscape:connector-curvature="0" />
    <path
       id="path6800"
       style="fill:#231f20;fill-opacity:1;fill-rule:nonzero;stroke:none;stroke-width:0.03527778"
       d="m -24.136954,99.285972 c 0,0.110384 0,0.450497 0.343606,0.450497 0.123471,0 0.246944,-0.04657 0.293511,-0.233574 h 0.450498 c -0.0063,0.08004 -0.02328,0.223379 -0.159809,0.366959 -0.123473,0.130105 -0.343958,0.196776 -0.590904,0.196776 -0.143227,0 -0.416984,-0.0264 -0.593725,-0.210287 -0.153459,-0.160126 -0.216959,-0.386538 -0.216959,-0.657154 0,-0.273403 0.06632,-0.600428 0.350309,-0.797348 0.130175,-0.0871 0.289983,-0.1403 0.473781,-0.1403 0.240242,0 0.527402,0.09345 0.68086,0.40707 0.113242,0.230435 0.106892,0.477661 0.10019,0.617361 z m 0.62724,-0.310444 c 0,-0.07648 -0.0067,-0.376767 -0.293513,-0.376767 -0.216959,0 -0.306917,0.180234 -0.317146,0.376767 h 0.610659"
       inkscape:connector-curvature="0" />
    <path
       id="path6802"
       style="fill:#231f20;fill-opacity:1;fill-rule:nonzero;stroke:none;stroke-width:0.03527778"
       d="m -22.678923,98.732146 c 0,-0.08004 -0.01376,-0.323814 -0.02363,-0.420828 h 0.464256 l 0.0095,0.323814 c 0.06385,-0.143298 0.173567,-0.346851 0.574324,-0.326707 v 0.443442 c -0.500947,-0.04657 -0.530932,0.210573 -0.530932,0.420864 v 0.830789 h -0.493518 v -1.271374"
       inkscape:connector-curvature="0" />
    <path
       id="path6804"
       style="fill:#231f20;fill-opacity:1;fill-rule:nonzero;stroke:none;stroke-width:0.03527778"
       d="m -58.119331,104.23798 0.256469,-0.30772 c 0.1778,0.14647 0.363714,0.23992 0.589492,0.23992 0.1778,0 0.285044,-0.0706 0.285044,-0.18658 v -0.005 c 0,-0.10996 -0.06809,-0.16644 -0.397933,-0.25079 -0.397581,-0.10199 -0.654403,-0.21167 -0.654403,-0.60357 v -0.006 c 0,-0.35817 0.287867,-0.59492 0.691092,-0.59492 0.287866,0 0.533047,0.0904 0.733425,0.25096 l -0.225425,0.32728 c -0.174978,-0.12129 -0.347134,-0.19473 -0.513292,-0.19473 -0.166511,0 -0.254,0.0762 -0.254,0.17183 v 0.006 c 0,0.13007 0.08431,0.17212 0.425803,0.25961 0.400755,0.10446 0.62618,0.24804 0.62618,0.5927 v 0.005 c 0,0.39233 -0.298802,0.61214 -0.724958,0.61214 -0.298803,0 -0.600428,-0.10403 -0.837494,-0.3157"
       inkscape:connector-curvature="0" />
    <path
       id="path6806"
       style="fill:#231f20;fill-opacity:1;fill-rule:nonzero;stroke:none;stroke-width:0.03527778"
       d="m -55.06357,103.77218 v -0.006 c 0,-0.25079 -0.169334,-0.41727 -0.369711,-0.41727 -0.200026,0 -0.366537,0.16648 -0.366537,0.41727 v 0.006 c 0,0.25124 0.166511,0.4174 0.366537,0.4174 0.200377,0 0.369711,-0.16302 0.369711,-0.4174 z m -1.159228,-0.75872 h 0.428272 v 0.21731 c 0.104422,-0.14111 0.248708,-0.24557 0.471311,-0.24557 0.352425,0 0.68827,0.27658 0.68827,0.78133 v 0.006 c 0,0.50493 -0.3302,0.78151 -0.68827,0.78151 -0.2286,0 -0.369358,-0.10403 -0.471311,-0.22546 v 0.64837 h -0.428272 v -1.96313"
       inkscape:connector-curvature="0" />
    <path
       id="path6808"
       style="fill:#231f20;fill-opacity:1;fill-rule:nonzero;stroke:none;stroke-width:0.03527778"
       d="m -53.325081,103.65093 c -0.0254,-0.19156 -0.137937,-0.32135 -0.318559,-0.32135 -0.1778,0 -0.293511,0.1269 -0.327378,0.32135 z m -1.066095,0.12693 v -0.006 c 0,-0.43145 0.30727,-0.78698 0.747536,-0.78698 0.504825,0 0.735895,0.39232 0.735895,0.82088 0,0.0339 -0.0028,0.0737 -0.0056,0.11289 h -1.051988 c 0.04233,0.1947 0.1778,0.2964 0.369711,0.2964 0.143581,0 0.248003,-0.0452 0.366536,-0.15529 l 0.245181,0.21703 c -0.140759,0.17529 -0.343606,0.28222 -0.617714,0.28222 -0.454025,0 -0.789517,-0.31859 -0.789517,-0.78147"
       inkscape:connector-curvature="0" />
    <path
       id="path6810"
       style="fill:#231f20;fill-opacity:1;fill-rule:nonzero;stroke:none;stroke-width:0.03527778"
       d="m -52.661154,103.77786 v -0.006 c 0,-0.43145 0.3302,-0.78698 0.792692,-0.78698 0.285044,0 0.462492,0.0959 0.603603,0.25396 l -0.262467,0.28223 c -0.0956,-0.10157 -0.191911,-0.16687 -0.343958,-0.16687 -0.214489,0 -0.366536,0.18906 -0.366536,0.41201 v 0.006 c 0,0.23153 0.149225,0.41741 0.383469,0.41741 0.143933,0 0.242711,-0.0617 0.347133,-0.16052 l 0.250825,0.25369 c -0.146402,0.16083 -0.316089,0.27657 -0.617714,0.27657 -0.454025,0 -0.787047,-0.3496 -0.787047,-0.78147"
       inkscape:connector-curvature="0" />
    <path
       id="path6812"
       style="fill:#231f20;fill-opacity:1;fill-rule:nonzero;stroke:none;stroke-width:0.03527778"
       d="m -50.956532,103.01346 h 0.428978 v 1.51197 h -0.428978 z m -0.01129,-0.54681 h 0.451202 v 0.38061 h -0.451202 v -0.38061"
       inkscape:connector-curvature="0" />
    <path
       id="path6814"
       style="fill:#231f20;fill-opacity:1;fill-rule:nonzero;stroke:none;stroke-width:0.03527778"
       d="m -49.229684,103.99242 v -0.0762 c -0.07338,-0.0339 -0.169334,-0.0565 -0.273756,-0.0565 -0.183092,0 -0.29598,0.0734 -0.29598,0.20892 v 0.005 c 0,0.11574 0.09595,0.1834 0.234244,0.1834 0.200025,0 0.335492,-0.10967 0.335492,-0.26483 z m -0.98425,0.0988 v -0.006 c 0,-0.32988 0.250825,-0.48256 0.608894,-0.48256 0.1524,0 0.262819,0.0256 0.369711,0.0624 v -0.0255 c 0,-0.17777 -0.110067,-0.27654 -0.324555,-0.27654 -0.163689,0 -0.279048,0.0314 -0.417336,0.0816 l -0.107245,-0.32699 c 0.166511,-0.0734 0.3302,-0.12115 0.58667,-0.12115 0.234244,0 0.403577,0.0617 0.510469,0.16909 0.113242,0.11285 0.163689,0.27905 0.163689,0.48217 v 0.8774 h -0.414514 v -0.1633 c -0.10407,0.1156 -0.248356,0.19156 -0.456847,0.19156 -0.285045,0 -0.518936,-0.16345 -0.518936,-0.4625"
       inkscape:connector-curvature="0" />
    <path
       id="path6816"
       style="fill:#231f20;fill-opacity:1;fill-rule:nonzero;stroke:none;stroke-width:0.03527778"
       d="m -48.433112,104.52543 h 0.428569 v -2.05879 h -0.428569 z"
       inkscape:connector-curvature="0" />
    <path
       id="path6818"
       style="fill:#231f20;fill-opacity:1;fill-rule:nonzero;stroke:none;stroke-width:0.03527778"
       d="m -47.580801,103.01346 h 0.428978 v 1.51197 h -0.428978 z m -0.01164,-0.54681 h 0.451555 v 0.38061 h -0.451556 v -0.38061"
       inkscape:connector-curvature="0" />
    <path
       id="path6820"
       style="fill:#231f20;fill-opacity:1;fill-rule:nonzero;stroke:none;stroke-width:0.03527778"
       d="m -46.799045,104.22349 0.78105,-0.86293 h -0.75565 v -0.3471 h 1.28905 v 0.3019 l -0.784225,0.86322 h 0.784225 v 0.34685 h -1.31445 v -0.30194"
       inkscape:connector-curvature="0" />
    <path
       id="path6822"
       style="fill:#231f20;fill-opacity:1;fill-rule:nonzero;stroke:none;stroke-width:0.03527778"
       d="m -44.208951,103.65093 c -0.0254,-0.19156 -0.137936,-0.32135 -0.318558,-0.32135 -0.1778,0 -0.293511,0.1269 -0.327378,0.32135 z m -1.066094,0.12693 v -0.006 c 0,-0.43145 0.307269,-0.78698 0.747536,-0.78698 0.504825,0 0.736247,0.39232 0.736247,0.82088 0,0.0339 -0.0032,0.0737 -0.006,0.11289 h -1.051983 c 0.04233,0.1947 0.1778,0.2964 0.369711,0.2964 0.14358,0 0.248003,-0.0452 0.366536,-0.15529 l 0.245181,0.21703 c -0.140759,0.17529 -0.343959,0.28222 -0.617714,0.28222 -0.454025,0 -0.789517,-0.31859 -0.789517,-0.78147"
       inkscape:connector-curvature="0" />
    <path
       id="path6824"
       style="fill:#231f20;fill-opacity:1;fill-rule:nonzero;stroke:none;stroke-width:0.03527778"
       d="m -42.374506,103.77218 v -0.006 c 0,-0.25079 -0.166159,-0.41727 -0.366889,-0.41727 -0.200025,0 -0.369006,0.16372 -0.369006,0.41727 v 0.006 c 0,0.25124 0.168981,0.4174 0.369006,0.4174 0.20073,0 0.366889,-0.16616 0.366889,-0.4174 z m -1.164873,0 v -0.006 c 0,-0.50476 0.329848,-0.78134 0.68827,-0.78134 0.228247,0 0.369711,0.10446 0.470958,0.22571 v -0.74426 h 0.428978 v 2.05878 h -0.428978 v -0.21731 c -0.104422,0.14153 -0.248003,0.24557 -0.470958,0.24557 -0.352425,0 -0.68827,-0.27658 -0.68827,-0.78151"
       inkscape:connector-curvature="0" />
  </g>
</svg>
