<?xml version="1.0" encoding="UTF-8" standalone="no"?>
<svg
   xmlns:dc="http://purl.org/dc/elements/1.1/"
   xmlns:cc="http://creativecommons.org/ns#"
   xmlns:rdf="http://www.w3.org/1999/02/22-rdf-syntax-ns#"
   xmlns:svg="http://www.w3.org/2000/svg"
   xmlns="http://www.w3.org/2000/svg"
   xmlns:sodipodi="http://sodipodi.sourceforge.net/DTD/sodipodi-0.dtd"
   xmlns:inkscape="http://www.inkscape.org/namespaces/inkscape"
   version="1.1"
   viewBox="0 0 323.18799 127.76986"
   data-name="Layer 1"
   id="Layer_1"
   sodipodi:docname="oracle_cloud.svg"
   width="323.18799"
   height="127.76985"
   inkscape:version="0.92.2 (5c3e80d, 2017-08-06)">
  <sodipodi:namedview
     pagecolor="#ffffff"
     bordercolor="#666666"
     borderopacity="1"
     objecttolerance="10"
     gridtolerance="10"
     guidetolerance="10"
     inkscape:pageopacity="0"
     inkscape:pageshadow="2"
     inkscape:window-width="1122"
     inkscape:window-height="480"
     id="namedview20"
     showgrid="false"
     fit-margin-top="15"
     fit-margin-left="15"
     fit-margin-right="15"
     fit-margin-bottom="15"
     inkscape:zoom="1.0436954"
     inkscape:cx="73.925239"
     inkscape:cy="63.889559"
     inkscape:window-x="0"
     inkscape:window-y="27"
     inkscape:window-maximized="0"
     inkscape:current-layer="Layer_1" />
  <metadata
     id="metadata37">
    <rdf:RDF>
      <cc:Work
         rdf:about="">
        <dc:format>image/svg+xml</dc:format>
        <dc:type
           rdf:resource="http://purl.org/dc/dcmitype/StillImage" />
        <dc:title>oracle-cloud-logo</dc:title>
      </cc:Work>
    </rdf:RDF>
  </metadata>
  <defs
     id="defs4">
    <style
       id="style2">.cls-1{fill:#e7202c;}</style>
  </defs>
  <title
     id="title6">oracle-cloud-logo</title>
  <path
     style="fill:#f80000;fill-opacity:1"
     id="path8"
     d="m 137.041,38.929297 h 18.677 l -9.861,-15.929 -18.123,28.761 h -8.268 l 22.046,-34.519 a 5.27,5.27 0 0 1 8.582,-0.063 l 22.122,34.582 h -8.254 l -3.885,-6.427 h -18.914 l -4.122,-6.406"
     class="cls-1"
     inkscape:connector-curvature="0" />
  <path
     style="fill:#f80000;fill-opacity:1"
     id="path10"
     d="m 222.741,45.335297 v -29.983 h -7.016 v 32.929 a 3.39,3.39 0 0 0 1.036,2.413 3.542,3.542 0 0 0 2.553,1.067 h 31.9 l 4.157,-6.427 h -32.63"
     class="cls-1"
     inkscape:connector-curvature="0" />
  <path
     style="fill:#f80000;fill-opacity:1"
     id="path12"
     d="m 106.916,39.975297 a 12.31,12.31 0 0 0 0,-24.619 H 76.281 v 36.409 h 7 v -29.979 h 23.168 a 5.894,5.894 0 1 1 0,11.787 v 0 l -19.744,-0.014 20.912,18.206 h 10.158 l -14.046,-11.787 h 3.187"
     class="cls-1"
     inkscape:connector-curvature="0" />
  <path
     style="fill:#f80000;fill-opacity:1"
     id="path14"
     d="m 53.887,45.356297 a 11.787,11.787 0 0 0 0.217,-23.573 H 33.672 a 11.787,11.787 0 0 0 0,23.573 h 20.215 m -20.682,6.405 a 18.2045,18.2045 0 0 1 0,-36.409 h 21.167 a 18.2045,18.2045 0 0 1 0,36.409 H 33.205"
     class="cls-1"
     inkscape:connector-curvature="0" />
  <path
     style="fill:#f80000;fill-opacity:1"
     id="path16"
     d="m 186.841,51.761297 a 18.2045,18.2045 0 0 1 0,-36.409 h 25.146 l -4.143,6.43 h -20.525 a 11.787,11.787 0 0 0 -0.217,23.573 h 25.436 l -4.09,6.406 h -21.607"
     class="cls-1"
     inkscape:connector-curvature="0" />
  <path
     style="fill:#f80000;fill-opacity:1"
     id="path18"
     d="m 272.465,45.356297 a 11.8,11.8 0 0 1 -11.344,-8.575 h 29.923 l 4.125,-6.42 h -34.045 a 11.787,11.787 0 0 1 11.344,-8.578 h 20.546 l 4.108,-6.43 h -25.118 a 18.2045,18.2045 0 0 0 0,36.409 h 21.606 l 4.1,-6.406 h -25.245"
     class="cls-1"
     inkscape:connector-curvature="0" />
  <path
     style="fill:#f80000;fill-opacity:1"
     id="path20"
     d="m 304.03,18.900297 a 0.8,0.8 0 0 0 0.746,-0.293 0.454,0.454 0 0 0 0.139,-0.387 0.623,0.623 0 0 0 -0.356,-0.561 2.11,2.11 0 0 0 -0.854,-0.094 h -0.241 v 1.335 h 0.565 m -0.321,-2.078 a 4.057,4.057 0 0 1 1.214,0.119 1.286,1.286 0 0 1 0.868,1.283 c 0,0.063 -0.021,0.213 -0.045,0.38 a 1.156,1.156 0 0 1 -0.568,0.8 1.108,1.108 0 0 1 -0.178,0.108 l 1.053,1.9 h -1.022 l -0.945,-1.765 h -0.617 v 1.753 h -0.914 v -4.576 h 1.154 m 0.391,6.507 a 4.09,4.09 0 1 0 -4.091,-4.09 4.09,4.09 0 0 0 4.091,4.09 v 0 m -3.233,-4.094 a 3.226,3.226 0 1 1 3.244,3.208 h -0.015 a 3.218,3.218 0 0 1 -3.233,-3.2 v -0.005"
     class="cls-1"
     inkscape:connector-curvature="0" />
  <rect
     id="rect22"
     height="2"
     width="282.70901"
     y="71.370293"
     x="15" />
  <path
     id="path24"
     d="m 111.762,96.600297 c -0.1,-0.8 -0.384,-4.063 -3.743,-4.063 -3.68,0 -5.216,3.84 -5.216,8.607003 0,1.376 0,7.936 4.832,7.936 2.08,0 4.064,-1.312 4.16,-4.384 h 5.216 a 7.911,7.911 0 0 1 -2.08,5.439 9.071,9.071 0 0 1 -6.751,2.592 c -7.967,0 -10.559,-5.888 -10.559,-11.615 0,-7.327003 4.1,-12.191003 10.591,-12.191003 5.055,0 8.607,3.072 8.607,7.68 z"
     inkscape:connector-curvature="0" />
  <path
     id="path26"
     d="m 122.484,89.083297 h 5.056 V 108.2503 h 9.919 v 3.936 h -14.975 z"
     inkscape:connector-curvature="0" />
  <path
     id="path28"
     d="m 151.315,88.571297 c 2.464,0 5.855,0.576 8.127,3.136 a 13.3,13.3 0 0 1 2.944,8.700003 c 0,3.36 -1.024,6.943 -2.912,9.056 -2.56,2.88 -6.3,3.3 -8.224,3.3 a 11.19,11.19 0 0 1 -8.191,-3.168 c -2.527,-2.687 -2.848,-6.527 -2.848,-8.64 0,-6.144003 2.784,-12.384003 11.104,-12.384003 z m -4.191,18.687003 a 4.752,4.752 0 0 0 4.191,1.855 4.692,4.692 0 0 0 4.319,-2.144 c 0.769,-1.151 1.568,-2.943 1.568,-6.623 a 13.339,13.339 0 0 0 -0.576,-4.128003 c -0.96,-2.848 -2.912,-4.1 -5.279,-4.1 a 5.252,5.252 0 0 0 -4.256,1.952 c -1.312,1.6 -1.7,4.1 -1.7,6.719003 a 10.656,10.656 0 0 0 1.733,6.469 z"
     inkscape:connector-curvature="0" />
  <path
     id="path30"
     d="M 173.427,89.115297 V 103.1943 c 0,2.527 0.191,5.7 5.023,5.7 0.8,0 3.2,-0.032 4.479,-2.016 0.48,-0.7 0.736,-1.6 0.736,-3.936 V 89.115297 h 4.83 V 103.5463 c 0,6.88 -5.472,9.088 -10.143,9.088 -2.3,0 -6.527,-0.513 -8.7,-4 -1.119,-1.76 -1.184,-3.552 -1.184,-5.7 V 89.115297 Z"
     inkscape:connector-curvature="0" />
  <path
     id="path32"
     d="m 195.54,89.115297 7.647,0.032 c 1.279,0 5.184,0.032 7.967,2.08 2.912,2.144 3.937,5.791 3.937,9.087003 0,7.1 -3.809,10.815 -8.191,11.615 a 21.6,21.6 0 0 1 -4.16,0.256 h -7.2 z m 5.023,19.263003 c 0.544,0.032 1.376,0.063 1.952,0.063 2.111,0 3.936,-0.159 5.375,-1.6 1.952,-1.952 2.08,-5.407 2.08,-6.527 0,-3.264003 -1.12,-6.271003 -4.224,-7.136003 a 15.985,15.985 0 0 0 -5.184,-0.319 z"
     inkscape:connector-curvature="0" />
</svg>
